>Format of result:
>sequence-id <tab> assigned-ec-number <tab> likelihood-score <tab> max-bitscore

sp|A0AIU3|MTNN_LISW6	3.2.2.9	1.000	313.4
sp|A0AJW1|DEOD_LISW6	2.4.2.1	1.000	262.6
sp|A0KIZ1|MTNN_AERHH	3.2.2.9	1.000	322.7
sp|A0KZQ7|MTNN_SHESA	3.2.2.9	1.000	327.1
sp|A0LR22|MQNB_ACIC1	3.2.2.26	1.000	372.3
sp|A0Q1A0|DEOD_CLONN	2.4.2.1	1.000	258.5
sp|A0QR54|MTAP_MYCS2	2.4.2.28	0.976	293.5
sp|A0RBS0|DEOD_BACAH	2.4.2.1	1.000	276.6
sp|A0RIY7|MTNN_BACAH	3.2.2.9	1.000	350.3
sp|A0RIY7|MTNN_BACAH	3.2.2.30	0.191	181.6
sp|A0RVQ7|MTAP_CENSY	2.4.2.28	1.000	321.9
sp|A1A7K5|MTNN_ECOK1	3.2.2.9	1.000	511.1
sp|A1IGA8|MTNN_ALIFS	3.2.2.9	1.000	341.7
sp|A1JJA0|DEOD_YERE8	2.4.2.1	1.000	292.7
sp|A1JJQ6|MTNN_YERE8	3.2.2.9	1.000	409.8
sp|A1RMF2|MTNN_SHESW	3.2.2.9	1.000	324.9
sp|A1RXU2|MTAP_THEPD	2.4.2.28	1.000	392.7
sp|A1S3V6|MTNN_SHEAM	3.2.2.9	1.000	321.8
sp|A1S477|DEOD_SHEAM	2.4.2.1	1.000	270.7
sp|A1STE7|MTNN_PSYIN	3.2.2.9	1.000	328.7
sp|A1SYK4|DEOD_PSYIN	2.4.2.1	1.000	262.2
sp|A2BIU4|MTAP_HYPBU	2.4.2.28	1.000	395.3
sp|A2RF09|DEOD_STRPG	2.4.2.1	0.969	250.3
sp|A3D1T1|MTNN_SHEB5	3.2.2.9	1.000	324.4
sp|A3D7J1|DEOD_SHEB5	2.4.2.1	1.000	263.3
sp|A3N122|DEOD_ACTP2	2.4.2.1	1.000	289.1
sp|A3N2T5|MTNN_ACTP2	3.2.2.9	1.000	332.8
sp|A3QBQ0|MTNN_SHELP	3.2.2.9	1.000	331.4
sp|A3QBQ0|MTNN_SHELP	3.2.2.30	0.057	172.5
sp|A3QGT0|DEOD_SHELP	2.4.2.1	1.000	269.7
sp|A4IN93|DEOD_GEOTN	2.4.2.1	1.000	265.5
sp|A4IR66|MTNN_GEOTN	3.2.2.9	1.000	330.3
sp|A4SP53|MTNN_AERS4	3.2.2.9	1.000	320.6
sp|A4TPX2|MTNN_YERPP	3.2.2.9	1.000	402.8
sp|A4TQJ0|DEOD_YERPP	2.4.2.1	1.000	291.0
sp|A4VWC2|DEOD_STRSY	2.4.2.1	0.971	246.9
sp|A4W2M2|DEOD_STRS2	2.4.2.1	0.971	246.9
sp|A4W6A1|DEOD_ENT38	2.4.2.1	1.000	289.6
sp|A4W6Q6|MTNN_ENT38	3.2.2.9	1.000	494.9
sp|A4Y4H9|MTNN_SHEPC	3.2.2.9	1.000	324.9
sp|A5EV41|DEOD_DICNV	2.4.2.1	0.946	236.0
sp|A5F5R2|MTNN_VIBC3	3.2.2.9	1.000	349.9
sp|A5F5R2|MTNN_VIBC3	3.2.2.30	0.053	170.5
sp|A5ITC6|MTNN_STAA9	3.2.2.9	1.000	336.3
sp|A5ITC6|MTNN_STAA9	3.2.2.30	0.071	174.8
sp|A5U9X5|DEOD_HAEIE	2.4.2.1	1.000	284.0
sp|A5UCP4|MTNN_HAEIE	3.2.2.9	1.000	323.0
sp|A5UH23|DEOD_HAEIG	2.4.2.1	1.000	283.9
sp|A5UIX8|MTNN_HAEIG	3.2.2.9	1.000	321.7
sp|A5VHR2|DEOD_LACRD	2.4.2.1	0.924	230.2
sp|A6M0X2|DEOD_CLOB8	2.4.2.1	1.000	255.5
sp|A6QHE1|MTNN_STAAE	3.2.2.9	1.000	336.3
sp|A6QHE1|MTNN_STAAE	3.2.2.30	0.071	174.8
sp|A6T4W3|MTNN_KLEP7	3.2.2.9	1.000	486.0
sp|A6TVU0|DEOD_ALKMQ	2.4.2.1	0.970	249.3
sp|A6U271|MTNN_STAA2	3.2.2.9	1.000	336.3
sp|A6U271|MTNN_STAA2	3.2.2.30	0.071	174.8
sp|A6VM01|DEOD_ACTSZ	2.4.2.1	1.000	282.7
sp|A6VPH1|MTNN_ACTSZ	3.2.2.9	1.000	318.1
sp|A6VPH1|MTNN_ACTSZ	3.2.2.30	0.115	178.5
sp|A6W3C9|MTNN_MARMS	3.2.2.9	1.000	315.4
sp|A6WKN2|MTNN_SHEB8	3.2.2.9	1.000	325.2
sp|A6WRB5|DEOD_SHEB8	2.4.2.1	1.000	263.3
sp|A7EAA1|MTAP_SCLS1	2.4.2.28	1.000	417.4
sp|A7FM04|MTNN_YERP3	3.2.2.9	1.000	407.2
sp|A7FMH2|DEOD_YERP3	2.4.2.1	1.000	293.7
sp|A7GN01|DEOD_BACCN	2.4.2.1	1.000	276.0
sp|A7GT52|MTNN_BACCN	3.2.2.9	1.000	344.6
sp|A7GT52|MTNN_BACCN	3.2.2.30	0.104	177.5
sp|A7MGS5|MTNN_CROS8	3.2.2.9	1.000	449.4
sp|A7MIG7|DEOD_CROS8	2.4.2.1	1.000	290.8
sp|A7MXP2|MTNN_VIBCB	3.2.2.9	1.000	351.1
sp|A7SN31|MTAP_NEMVE	2.4.2.28	1.000	377.7
sp|A7X306|MTNN_STAA1	3.2.2.9	1.000	336.3
sp|A7X306|MTNN_STAA1	3.2.2.30	0.071	174.8
sp|A7Z5M8|DEOD_BACA2	2.4.2.1	1.000	259.9
sp|A7Z721|MTNN_BACA2	3.2.2.9	1.000	343.6
sp|A7Z721|MTNN_BACA2	3.2.2.30	0.054	170.8
sp|A7ZHQ1|MTNN_ECO24	3.2.2.9	1.000	511.1
sp|A7ZVS7|DEOD_ECO24	2.4.2.1	1.000	292.0
sp|A7ZWA7|MTNN_ECOHS	3.2.2.9	1.000	508.0
sp|A8A8B3|DEOD_ECOHS	2.4.2.1	1.000	292.0
sp|A8ALC9|MTNN_CITK8	3.2.2.9	1.000	503.2
sp|A8ALX7|DEOD_CITK8	2.4.2.1	1.000	291.7
sp|A8AXN4|DEOD_STRGC	2.4.2.1	0.981	251.8
sp|A8FFL1|MTNN_BACP2	3.2.2.9	1.000	339.2
sp|A8FFL1|MTNN_BACP2	3.2.2.30	0.404	184.8
sp|A8FSA3|MTNN_SHESH	3.2.2.9	1.000	332.0
sp|A8FSA3|MTNN_SHESH	3.2.2.30	0.055	171.0
sp|A8G9V3|MTNN_SERP5	3.2.2.9	1.000	402.6
sp|A8H191|MTNN_SHEPA	3.2.2.9	1.000	330.9
sp|A8H191|MTNN_SHEPA	3.2.2.30	0.060	173.3
sp|A8LJI8|DEOD_DINSH	2.4.2.1	0.823	203.1
sp|A8P7Y3|MTAP_COPC7	2.4.2.28	1.000	381.9
sp|A8XGS6|MTAP_CAEBR	2.4.2.28	1.000	353.4
sp|A8Z4D8|MTNN_STAAT	3.2.2.9	1.000	336.3
sp|A8Z4D8|MTNN_STAAT	3.2.2.30	0.071	174.8
sp|A9A3N5|MTAP_NITMS	2.4.2.28	1.000	372.2
sp|A9L5L1|MTNN_SHEB9	3.2.2.9	1.000	326.3
sp|A9MPK2|MTNN_SALAR	3.2.2.9	1.000	518.9
sp|A9MRA4|DEOD_SALAR	2.4.2.1	1.000	290.7
sp|A9N0Q5|MTNN_SALPB	3.2.2.9	1.000	529.2
sp|A9N7E3|DEOD_SALPB	2.4.2.1	1.000	291.1
sp|A9R046|DEOD_YERPG	2.4.2.1	1.000	291.0
sp|A9R1E0|MTNN_YERPG	3.2.2.9	1.000	402.8
sp|A9VHZ5|MTNN_BACWK	3.2.2.9	1.000	348.3
sp|A9VHZ5|MTNN_BACWK	3.2.2.30	0.141	181.1
sp|A9VLN1|DEOD_BACWK	2.4.2.1	1.000	276.6
sp|A9WAL0|MTAP_CHLAA	2.4.2.28	1.000	385.7
sp|B0BPV3|DEOD_ACTPJ	2.4.2.1	1.000	287.7
sp|B0BRW3|MTNN_ACTPJ	3.2.2.9	1.000	334.6
sp|B0K6Y4|DEOD_THEPX	2.4.2.1	0.989	253.0
sp|B0K889|DEOD_THEP3	2.4.2.1	0.989	253.0
sp|B0TIS5|MTNN_SHEHH	3.2.2.9	1.000	331.8
sp|B0URX4|MTNN_HISS2	3.2.2.9	1.000	329.9
sp|B0UVM2|DEOD_HISS2	2.4.2.1	1.000	285.9
sp|B1HUJ1|MTNN_LYSSC	3.2.2.9	1.000	330.4
sp|B1IB05|DEOD_STRPI	2.4.2.1	0.970	248.9
sp|B1IQI1|MTNN_ECOLC	3.2.2.9	1.000	511.1
sp|B1IS35|DEOD_ECOLC	2.4.2.1	1.000	291.8
sp|B1JK17|MTNN_YERPY	3.2.2.9	1.000	407.2
sp|B1JL34|DEOD_YERPY	2.4.2.1	1.000	293.7
sp|B1KI32|MTNN_SHEWM	3.2.2.9	1.000	325.2
sp|B1L719|PNPH_KORCO	2.4.2.44	0.375	310.4
sp|B1LEI9|DEOD_ECOSM	2.4.2.1	1.000	292.0
sp|B1LGW2|MTNN_ECOSM	3.2.2.9	1.000	511.1
sp|B1XD29|MTNN_ECODH	3.2.2.9	1.000	511.1
sp|B1XFJ4|DEOD_ECODH	2.4.2.1	1.000	292.0
sp|B1YJD6|MTNN_EXIS2	3.2.2.9	1.000	334.9
sp|B1YJP1|DEOD_EXIS2	2.4.2.1	0.989	252.8
sp|B2G592|DEOD_LACRJ	2.4.2.1	0.924	230.2
sp|B2INV3|DEOD_STRPS	2.4.2.1	0.971	248.3
sp|B2K3J1|DEOD_YERPB	2.4.2.1	1.000	293.7
sp|B2K553|MTNN_YERPB	3.2.2.9	1.000	407.2
sp|B2TZR7|DEOD_SHIB3	2.4.2.1	1.000	292.0
sp|B2U303|MTNN_SHIB3	3.2.2.9	1.000	511.1
sp|B2UUU1|DEOD_HELPS	2.4.2.1	0.897	225.8
sp|B2VE28|MTNN_ERWT9	3.2.2.9	1.000	420.3
sp|B2VH53|DEOD_ERWT9	2.4.2.1	1.000	290.6
sp|B3H1P6|DEOD_ACTP7	2.4.2.1	1.000	289.1
sp|B3H2N4|MTNN_ACTP7	3.2.2.9	1.000	332.8
sp|B3W8N4|DEOD_LACCB	2.4.2.1	0.840	214.7
sp|B4EUF0|MTNN_PROMH	3.2.2.9	1.000	368.3
sp|B4EWA1|DEOD_PROMH	2.4.2.1	1.000	290.7
sp|B4SUY9|MTNN_SALNS	3.2.2.9	1.000	529.9
sp|B4T4H3|DEOD_SALNS	2.4.2.1	1.000	291.1
sp|B4TH02|DEOD_SALHS	2.4.2.1	1.000	291.0
sp|B4TK35|MTNN_SALHS	3.2.2.9	1.000	529.9
sp|B4TU44|DEOD_SALSV	2.4.2.1	1.000	291.1
sp|B4TXR1|MTNN_SALSV	3.2.2.9	1.000	532.5
sp|B5BAK0|DEOD_SALPK	2.4.2.1	1.000	291.1
sp|B5BL87|MTNN_SALPK	3.2.2.9	1.000	529.2
sp|B5E3K8|DEOD_STRP4	2.4.2.1	0.970	250.1
sp|B5F527|DEOD_SALA4	2.4.2.1	1.000	291.1
sp|B5F8S1|MTNN_SALA4	3.2.2.9	1.000	532.5
sp|B5FAL1|MTNN_VIBFM	3.2.2.9	1.000	341.3
sp|B5FJ06|MTNN_SALDC	3.2.2.9	1.000	534.7
sp|B5FTC8|DEOD_SALDC	2.4.2.1	1.000	291.1
sp|B5R2J9|DEOD_SALEP	2.4.2.1	1.000	291.1
sp|B5R3H1|MTNN_SALEP	3.2.2.9	1.000	529.9
sp|B5R9V2|DEOD_SALG2	2.4.2.1	1.000	287.4
sp|B5RHE5|MTNN_SALG2	3.2.2.9	1.000	529.9
sp|B5Y1L0|MTNN_KLEP3	3.2.2.9	1.000	479.2
sp|B5Y274|DEOD_KLEP3	2.4.2.1	1.000	290.1
sp|B5YKP5|MTIP_THEYD	2.4.2.44	1.000	397.0
sp|B5Z0D9|MTNN_ECO5E	3.2.2.9	1.000	511.1
sp|B5Z4R6|DEOD_ECO5E	2.4.2.1	1.000	292.0
sp|B5Z8H2|DEOD_HELPG	2.4.2.1	0.886	221.8
sp|B6EKZ7|MTNN_ALISL	3.2.2.9	1.000	338.2
sp|B6ER81|DEOD_ALISL	2.4.2.1	1.000	262.5
sp|B6HZD5|MTNN_ECOSE	3.2.2.9	1.000	511.1
sp|B6I6N1|DEOD_ECOSE	2.4.2.1	1.000	292.0
sp|B6JN17|DEOD_HELP2	2.4.2.1	0.891	223.6
sp|B7GIU7|MTNN_ANOFW	3.2.2.9	1.000	346.5
sp|B7GIU7|MTNN_ANOFW	3.2.2.30	0.141	181.0
sp|B7GKU4|DEOD_ANOFW	2.4.2.1	1.000	263.4
sp|B7HE08|MTNN_BACC4	3.2.2.9	1.000	347.8
sp|B7HE08|MTNN_BACC4	3.2.2.30	0.122	180.3
sp|B7HHL7|DEOD_BACC4	2.4.2.1	1.000	276.2
sp|B7HKX2|DEOD_BACC7	2.4.2.1	1.000	276.6
sp|B7HQD2|MTNN_BACC7	3.2.2.9	1.000	350.3
sp|B7HQD2|MTNN_BACC7	3.2.2.30	0.191	181.6
sp|B7IP41|DEOD_BACC2	2.4.2.1	1.000	276.6
sp|B7IYM7|MTNN_BACC2	3.2.2.9	1.000	348.3
sp|B7IYM7|MTNN_BACC2	3.2.2.30	0.295	181.9
sp|B7JGU6|DEOD_BACC0	2.4.2.1	1.000	276.6
sp|B7JP64|MTNN_BACC0	3.2.2.9	1.000	350.3
sp|B7JP64|MTNN_BACC0	3.2.2.30	0.191	181.6
sp|B7LEN0|DEOD_ECO55	2.4.2.1	1.000	292.0
sp|B7LGM1|MTNN_ECO55	3.2.2.9	1.000	511.1
sp|B7LNS4|DEOD_ESCF3	2.4.2.1	1.000	292.0
sp|B7LWC0|MTNN_ESCF3	3.2.2.9	1.000	493.7
sp|B7LXU6|DEOD_ECO8A	2.4.2.1	1.000	292.0
sp|B7M1A0|MTNN_ECO8A	3.2.2.9	1.000	511.1
sp|B7MBE2|MTNN_ECO45	3.2.2.9	1.000	511.1
sp|B7MNJ1|DEOD_ECO45	2.4.2.1	1.000	292.0
sp|B7MP21|MTNN_ECO81	3.2.2.9	1.000	511.1
sp|B7N2V8|DEOD_ECO81	2.4.2.1	1.000	291.8
sp|B7N828|MTNN_ECOLU	3.2.2.9	1.000	511.1
sp|B7NH52|DEOD_ECOLU	2.4.2.1	1.000	292.0
sp|B7NIC2|MTNN_ECO7I	3.2.2.9	1.000	511.1
sp|B7NW64|DEOD_ECO7I	2.4.2.1	1.000	291.8
sp|B7UIK6|MTNN_ECO27	3.2.2.9	1.000	511.1
sp|B7UR12|DEOD_ECO27	2.4.2.1	1.000	291.8
sp|B7VJ21|MTNN_VIBTL	3.2.2.9	1.000	336.1
sp|B8CQP2|MTNN_SHEPW	3.2.2.9	1.000	325.8
sp|B8D7B4|MTNN_BUCAT	3.2.2.9	1.000	285.3
sp|B8D865|DEOD_BUCAT	2.4.2.1	0.954	237.7
sp|B8D909|MTNN_BUCA5	3.2.2.9	1.000	285.3
sp|B8D9W3|DEOD_BUCA5	2.4.2.1	0.954	237.8
sp|B8DDP6|DEOD_LISMH	2.4.2.1	1.000	262.3
sp|B8DE17|MTNN_LISMH	3.2.2.9	1.000	313.4
sp|B8E181|PNPH_DICTD	2.4.2.44	0.623	345.7
sp|B8E6P7|DEOD_SHEB2	2.4.2.1	1.000	262.6
sp|B8EBS7|MTNN_SHEB2	3.2.2.9	1.000	326.3
sp|B8F672|DEOD_HAEPS	2.4.2.1	1.000	284.7
sp|B8F704|MTNN_HAEPS	3.2.2.9	1.000	320.3
sp|B8ZNN8|DEOD_STRPJ	2.4.2.1	0.970	250.1
sp|B9DNJ2|MTNN_STACT	3.2.2.9	1.000	320.2
sp|B9DNJ2|MTNN_STACT	3.2.2.30	0.481	193.1
sp|B9DUK0|DEOD_STRU0	2.4.2.1	0.963	238.7
sp|B9IVI6|DEOD_BACCQ	2.4.2.1	1.000	276.6
sp|C0NRX4|MTAP_AJECG	2.4.2.28	1.000	433.9
sp|C0Q5S0|MTNN_SALPC	3.2.2.9	1.000	527.6
sp|C0ZDZ3|DEOD_BREBN	2.4.2.1	1.000	255.7
sp|C1C6H0|DEOD_STRP7	2.4.2.1	0.970	250.1
sp|C1CDI3|DEOD_STRZJ	2.4.2.1	0.979	251.6
sp|C1CJS5|DEOD_STRZP	2.4.2.1	0.970	250.1
sp|C1CS55|DEOD_STRZT	2.4.2.1	0.971	248.3
sp|C1EMV9|DEOD_BACC3	2.4.2.1	1.000	276.6
sp|C1ESR9|MTNN_BACC3	3.2.2.9	1.000	350.3
sp|C1ESR9|MTNN_BACC3	3.2.2.30	0.191	181.6
sp|C1KVE1|MTNN_LISMC	3.2.2.9	1.000	313.6
sp|C1KWF5|DEOD_LISMC	2.4.2.1	1.000	262.3
sp|C3L5Y0|MTNN_BACAC	3.2.2.9	1.000	350.3
sp|C3L5Y0|MTNN_BACAC	3.2.2.30	0.191	181.6
sp|C3L9J6|DEOD_BACAC	2.4.2.1	1.000	276.6
sp|C3LQF1|MTNN_VIBCM	3.2.2.9	1.000	349.9
sp|C3LQF1|MTNN_VIBCM	3.2.2.30	0.053	170.5
sp|C3P552|DEOD_BACAA	2.4.2.1	1.000	276.6
sp|C3P964|MTNN_BACAA	3.2.2.9	1.000	350.3
sp|C3P964|MTNN_BACAA	3.2.2.30	0.191	181.6
sp|C4K6C1|MTNN_HAMD5	3.2.2.9	1.000	328.3
sp|C4L2Y4|DEOD_EXISA	2.4.2.1	0.962	243.2
sp|C4L559|MTNN_EXISA	3.2.2.9	1.000	330.6
sp|C4L559|MTNN_EXISA	3.2.2.30	0.099	176.2
sp|C4LAP0|MTNN_TOLAT	3.2.2.9	1.000	343.6
sp|C4LAY8|DEOD_TOLAT	2.4.2.1	1.000	280.5
sp|C4YQD9|MTAP_CANAW	2.4.2.28	1.000	416.1
sp|C4ZRQ2|MTNN_ECOBW	3.2.2.9	1.000	511.1
sp|C4ZT66|DEOD_ECOBW	2.4.2.1	1.000	292.0
sp|C5BAP4|MTNN_EDWI9	3.2.2.9	1.000	388.8
sp|C5BHJ5|DEOD_EDWI9	2.4.2.1	1.000	286.0
sp|C5D2F9|DEOD_GEOSW	2.4.2.1	1.000	262.9
sp|C5D4X9|MTNN_GEOSW	3.2.2.9	1.000	340.4
sp|C5D4X9|MTNN_GEOSW	3.2.2.30	0.064	174.2
sp|C6BU87|MTNN_DESAD	3.2.2.9	1.000	291.1
sp|C6DC27|MTNN_PECCP	3.2.2.9	1.000	407.2
sp|C6DKM0|DEOD_PECCP	2.4.2.1	1.000	295.4
sp|C7YLQ3|MTAP_NECH7	2.4.2.28	1.000	426.0
sp|C8VP37|MTAP_EMENI	2.4.2.28	1.000	453.3
sp|D5GFR0|MTAP_TUBMM	2.4.2.28	1.000	416.3
sp|E3K7C1|MTAP2_PUCGT	2.4.2.28	1.000	371.2
sp|E3K7C3|MTAP1_PUCGT	2.4.2.28	1.000	402.5
sp|E3XFR6|MTAP_ANODA	2.4.2.28	1.000	373.8
sp|F6RQL9|MTAP_MACMU	2.4.2.28	1.000	406.7
sp|F6V515|MTAP_XENTR	2.4.2.28	1.000	394.4
sp|F6X2V8|MTAP_CIOIN	2.4.2.28	1.000	377.5
sp|O06401|MTAP_MYCTU	2.4.2.28	1.000	297.3
sp|O08444|UDP_ENTAE	2.4.2.3	1.000	439.3
sp|O24915|MQMTN_HELPY	3.2.2.30	1.000	469.0
sp|O24915|MQMTN_HELPY	3.2.2.9	1.000	469.0
sp|O27633|MTIP_METTH	2.4.2.44	1.000	410.5
sp|O28486|PNPH_ARCFU	2.4.2.1	0.792	193.0
sp|O28486|PNPH_ARCFU	2.4.2.44	0.120	224.1
sp|O32028|MTNN_BACSU	3.2.2.9	1.000	349.1
sp|O32810|DEOD_LACLM	2.4.2.1	1.000	253.9
sp|O34925|DEOD_BACSU	2.4.2.1	1.000	268.5
sp|O51931|MTNN_BUCAP	3.2.2.9	1.000	287.0
sp|O57865|MTAP_PYRHO	2.4.2.28	1.000	378.7
sp|O66839|PNPH_AQUAE	2.4.2.44	0.578	329.7
sp|O83716|DEOD_TREPA	2.4.2.1	0.879	220.4
sp|O83990|UDP_TREPA	2.4.2.3	1.000	343.1
sp|O95045|UPP2_HUMAN	2.4.2.3	1.000	441.8
sp|P00491|PNPH_HUMAN	2.4.2.1	1.000	275.5
sp|P0A1F6|UDP_SALTY	2.4.2.3	1.000	441.2
sp|P0A1F7|UDP_SALTI	2.4.2.3	1.000	441.2
sp|P0A539|PUNA_MYCBO	2.4.2.1	0.917	228.0
sp|P0ABP8|DEOD_ECOLI	2.4.2.1	1.000	292.0
sp|P0ABP9|DEOD_ECO57	2.4.2.1	1.000	292.0
sp|P0AE12|AMN_ECOLI	3.2.2.4	1.000	1179.1
sp|P0AE13|AMN_ECO57	3.2.2.4	1.000	1179.1
sp|P0AF12|MTNN_ECOLI	3.2.2.9	1.000	511.1
sp|P0AF13|MTNN_ECOL6	3.2.2.9	1.000	511.1
sp|P0AF14|MTNN_ECO57	3.2.2.9	1.000	511.1
sp|P0AF15|MTNN_SHIFL	3.2.2.9	1.000	511.1
sp|P0DJF8|MTAP_SYNY3	2.4.2.28	1.000	408.9
sp|P0DJF9|MTAP_SYNYG	2.4.2.28	1.000	408.9
sp|P12758|UDP_ECOLI	2.4.2.3	1.000	440.8
sp|P23139|YPE2_RHORU	2.4.2.28	0.367	162.5
sp|P23492|PNPH_MOUSE	2.4.2.1	1.000	283.6
sp|P27711|FIB_SPICI	3.2.2.9	0.413	68.9
sp|P43770|UDP_HAEIN	2.4.2.3	1.000	398.0
sp|P44417|DEOD_HAEIN	2.4.2.1	1.000	283.8
sp|P45113|MTNN_HAEIN	3.2.2.9	1.000	321.8
sp|P45563|XAPA_ECOLI	2.4.2.1	0.890	224.8
sp|P46354|PUNA_BACSU	2.4.2.1	1.000	257.2
sp|P46862|PUNA_MYCLE	2.4.2.1	0.903	226.4
sp|P47295|DEOD_MYCGE	2.4.2.1	0.773	183.8
sp|P50389|PNPH_SULSO	2.4.2.1	0.687	154.2
sp|P52624|UPP1_MOUSE	2.4.2.3	1.000	582.9
sp|P52671|UDP_KLEPN	2.4.2.3	1.000	410.6
sp|P55519|Y4JS_RHISN	3.2.2.9	0.174	55.9
sp|P55859|PNPH_BOVIN	2.4.2.1	1.000	278.4
sp|P56463|DEOD_HELPY	2.4.2.1	0.899	226.1
sp|P57306|MTNN_BUCAI	3.2.2.9	1.000	283.4
sp|P57606|DEOD_BUCAI	2.4.2.1	0.954	237.7
sp|P60216|MTNN_SALTI	3.2.2.9	1.000	529.2
sp|P60217|MTNN_SALTY	3.2.2.9	1.000	529.2
sp|P67657|MTNN_MYCBO	3.2.2.9	1.000	237.1
sp|P75053|DEOD_MYCPN	2.4.2.1	0.802	194.6
sp|P77834|PUNA_GEOSE	2.4.2.1	1.000	264.8
sp|P77835|DEOD_GEOSE	2.4.2.1	1.000	262.2
sp|P81989|PUNA_CELSP	2.4.2.1	0.873	219.2
sp|P85973|PNPH_RAT	2.4.2.1	1.000	285.3
sp|P94164|DEOD_ACTPL	2.4.2.1	1.000	289.1
sp|P96122|MTNN_TREPA	3.2.2.9	1.000	263.4
sp|P9WJM2|MTNN_MYCTO	3.2.2.9	1.000	237.1
sp|P9WJM3|MTNN_MYCTU	3.2.2.9	1.000	237.1
sp|P9WLE0|Y2293_MYCTO	3.2.2.9	0.116	26.5
sp|P9WLE1|Y2293_MYCTU	3.2.2.9	0.116	26.5
sp|P9WP00|PUNA_MYCTO	2.4.2.1	0.917	228.0
sp|P9WP01|PUNA_MYCTU	2.4.2.1	0.917	228.0
sp|Q02ZT0|DEOD_LACLS	2.4.2.1	1.000	253.9
sp|Q03CD2|DEOD_LACC3	2.4.2.1	0.840	214.7
sp|Q03KK1|DEOD_STRTD	2.4.2.1	0.970	248.7
sp|Q03Q52|DEOD_LACBA	2.4.2.1	0.924	228.7
sp|Q04L76|DEOD_STRP2	2.4.2.1	0.970	250.1
sp|Q05788|PNPH_YEAST	2.4.2.1	1.000	265.2
sp|Q07469|BSPA_POPDE	3.2.2.9	0.174	54.0
sp|Q07938|MTAP_YEAST	2.4.2.28	1.000	383.7
sp|Q07YV9|MTNN_SHEFN	3.2.2.9	1.000	316.4
sp|Q07YV9|MTNN_SHEFN	3.2.2.30	0.053	170.6
sp|Q086F7|DEOD_SHEFN	2.4.2.1	1.000	268.0
sp|Q09117|BSPB_POPDE	3.2.2.9	0.172	52.8
sp|Q09438|MTAP_CAEEL	2.4.2.28	1.000	349.1
sp|Q09816|MTAP_SCHPO	2.4.2.28	1.000	395.1
sp|Q0HG72|MTNN_SHESM	3.2.2.9	1.000	326.4
sp|Q0HLE7|DEOD_SHESM	2.4.2.1	1.000	266.5
sp|Q0HSG5|MTNN_SHESR	3.2.2.9	1.000	325.0
sp|Q0HXQ1|DEOD_SHESR	2.4.2.1	1.000	266.5
sp|Q0I1K5|DEOD_HISS1	2.4.2.1	1.000	285.2
sp|Q0I5K4|MTNN_HISS1	3.2.2.9	1.000	329.6
sp|Q0PC20|MQMTN_CAMJE	3.2.2.30	1.000	437.9
sp|Q0PC20|MQMTN_CAMJE	3.2.2.9	1.000	437.9
sp|Q0ST47|DEOD_CLOPS	2.4.2.1	1.000	262.0
sp|Q0SX27|DEOD_SHIF8	2.4.2.1	1.000	291.8
sp|Q0T847|MTNN_SHIF8	3.2.2.9	1.000	511.1
sp|Q0T8S9|DEOD_ECOL5	2.4.2.1	1.000	291.8
sp|Q0TLH2|MTNN_ECOL5	3.2.2.9	1.000	511.1
sp|Q0TQJ7|DEOD_CLOP1	2.4.2.1	1.000	261.8
sp|Q0U796|MTAP_PHANO	2.4.2.28	1.000	430.7
sp|Q12KE6|MTNN_SHEDO	3.2.2.9	1.000	320.9
sp|Q12KE6|MTNN_SHEDO	3.2.2.30	0.061	173.4
sp|Q12QG0|DEOD_SHEDO	2.4.2.1	1.000	268.6
sp|Q13126|MTAP_HUMAN	2.4.2.28	1.000	406.7
sp|Q16831|UPP1_HUMAN	2.4.2.3	1.000	735.1
sp|Q169T2|DEOD_ROSDO	2.4.2.1	0.828	205.3
sp|Q16MW6|MTAP_AEDAE	2.4.2.28	1.000	382.0
sp|Q17YP0|DEOD_HELAH	2.4.2.1	0.892	222.7
sp|Q1C166|DEOD_YERPA	2.4.2.1	1.000	291.0
sp|Q1C3X7|MTNN_YERPA	3.2.2.9	1.000	401.2
sp|Q1CLU1|MTNN_YERPN	3.2.2.9	1.000	402.8
sp|Q1CMY7|DEOD_YERPN	2.4.2.1	1.000	291.0
sp|Q1CS88|DEOD_HELPH	2.4.2.1	0.903	226.4
sp|Q1D9Z7|DEOD_MYXXD	2.4.2.1	0.963	239.1
sp|Q1INC3|MTAP_KORVE	2.4.2.28	1.000	406.6
sp|Q1J733|DEOD_STRPF	2.4.2.1	0.989	252.3
sp|Q1JC85|DEOD_STRPB	2.4.2.1	0.979	251.6
sp|Q1JM69|DEOD_STRPC	2.4.2.1	0.979	251.6
sp|Q1LTN6|MTNN_BAUCH	3.2.2.9	1.000	283.9
sp|Q1QVV7|MTNN_CHRSD	3.2.2.9	1.000	316.2
sp|Q1RG29|MTNN_ECOUT	3.2.2.9	1.000	511.1
sp|Q28U96|DEOD_JANSC	2.4.2.1	0.865	217.8
sp|Q291H4|MTAP_DROPS	2.4.2.28	1.000	370.5
sp|Q297F5|PNPH_DROPS	2.4.2.28	0.705	282.7
sp|Q2FGC5|MTNN_STAA3	3.2.2.9	1.000	336.3
sp|Q2FGC5|MTNN_STAA3	3.2.2.30	0.071	174.8
sp|Q2FXX8|MTNN_STAA8	3.2.2.9	1.000	336.3
sp|Q2FXX8|MTNN_STAA8	3.2.2.30	0.071	174.8
sp|Q2NVP7|MTNN_SODGM	3.2.2.9	1.000	358.4
sp|Q2RKL6|PNPH_MOOTA	2.4.2.44	0.509	320.6
sp|Q2RXH9|MTAP_RHORT	2.4.2.28	1.000	368.3
sp|Q2SHN2|DEOD_HAHCH	2.4.2.1	0.922	232.1
sp|Q2YT29|MTNN_STAAB	3.2.2.9	1.000	335.1
sp|Q2YT29|MTNN_STAAB	3.2.2.30	0.058	172.6
sp|Q31DQ5|MTNN_THICR	3.2.2.9	1.000	312.6
sp|Q31SV5|DEOD_SHIBS	2.4.2.1	1.000	292.0
sp|Q325Y0|MTNN_SHIBS	3.2.2.9	1.000	510.7
sp|Q327L2|DEOD_SHIDS	2.4.2.1	1.000	291.8
sp|Q32JU9|MTNN_SHIDS	3.2.2.9	1.000	511.1
sp|Q38XI0|DEOD_LACSS	2.4.2.1	0.922	231.9
sp|Q3ICU8|DEOD_PSEHT	2.4.2.1	0.971	246.1
sp|Q3ILJ7|MTNN_PSEHT	3.2.2.9	1.000	326.8
sp|Q3J5E8|MTAP_RHOS4	2.4.2.28	1.000	379.4
sp|Q3MHF7|MTAP_BOVIN	2.4.2.28	1.000	401.8
sp|Q3YU09|DEOD_SHISS	2.4.2.1	1.000	292.0
sp|Q3Z5J8|MTNN_SHISS	3.2.2.9	1.000	511.1
sp|Q47UY5|MTNN_COLP3	3.2.2.9	1.000	320.1
sp|Q483Q8|DEOD_COLP3	2.4.2.1	1.000	260.8
sp|Q49Y40|MTNN_STAS1	3.2.2.9	1.000	313.2
sp|Q4L6V0|MTNN_STAHJ	3.2.2.9	1.000	322.3
sp|Q4L6V0|MTNN_STAHJ	3.2.2.30	0.098	176.0
sp|Q4PH43|MTAP_USTMA	2.4.2.28	1.000	398.6
sp|Q4QL83|MTNN_HAEI8	3.2.2.9	1.000	321.9
sp|Q4QN30|DEOD_HAEI8	2.4.2.1	1.000	283.8
sp|Q4WMU1|MTAP_ASPFU	2.4.2.28	1.000	450.0
sp|Q56037|DEOD_STRTR	2.4.2.1	0.874	218.7
sp|Q57G38|DEOD_SALCH	2.4.2.1	1.000	291.1
sp|Q57T48|MTNN_SALCH	3.2.2.9	1.000	527.6
sp|Q59482|DEOD_KLEPN	2.4.2.1	1.000	264.3
sp|Q59ST1|MTAP_CANAL	2.4.2.28	1.000	418.5
sp|Q5DYV8|DEOD3_VIBF1	2.4.2.1	0.924	230.1
sp|Q5E0H4|DEOD2_VIBF1	2.4.2.1	1.000	265.6
sp|Q5E2X3|MTNN_VIBF1	3.2.2.9	1.000	341.3
sp|Q5E7J4|DEOD1_VIBF1	2.4.2.1	1.000	268.9
sp|Q5EEL8|DEOD_BACCE	2.4.2.1	1.000	276.6
sp|Q5HFG2|MTNN_STAAC	3.2.2.9	1.000	336.3
sp|Q5HFG2|MTNN_STAAC	3.2.2.30	0.071	174.8
sp|Q5HNU8|MTNN_STAEQ	3.2.2.9	1.000	325.5
sp|Q5HNU8|MTNN_STAEQ	3.2.2.30	0.108	178.1
sp|Q5JEQ6|MTAP_THEKO	2.4.2.28	1.000	374.8
sp|Q5JJB8|PNPH_THEKO	2.4.2.44	0.907	360.9
sp|Q5KPU2|MTAP_CRYNJ	2.4.2.28	1.000	392.3
sp|Q5KWV9|MTNN_GEOKA	3.2.2.9	1.000	330.0
sp|Q5KZM1|DEOD_GEOKA	2.4.2.1	1.000	267.5
sp|Q5PD46|MTNN_SALPA	3.2.2.9	1.000	526.1
sp|Q5PK20|DEOD_SALPA	2.4.2.1	1.000	291.1
sp|Q5SKT7|MQNB_THET8	3.2.2.26	1.000	328.7
sp|Q5UR60|YR802_MIMIV	2.4.2.1	0.104	20.9
sp|Q5WHL7|MTNN_BACSK	3.2.2.9	1.000	310.4
sp|Q60367|MTIP_METJA	2.4.2.44	1.000	392.4
sp|Q634H0|MTNN_BACCZ	3.2.2.9	1.000	350.3
sp|Q634H0|MTNN_BACCZ	3.2.2.30	0.191	181.6
sp|Q63DR9|DEOD_BACCZ	2.4.2.1	1.000	277.0
sp|Q65GT9|MTNN_BACLD	3.2.2.9	1.000	341.8
sp|Q65GT9|MTNN_BACLD	3.2.2.30	0.069	174.7
sp|Q65IE9|DEOD_BACLD	2.4.2.1	1.000	259.8
sp|Q65RA4|DEOD_MANSM	2.4.2.1	1.000	289.7
sp|Q65SB6|MTNN_MANSM	3.2.2.9	1.000	322.8
sp|Q66EE6|MTNN_YERPS	3.2.2.9	1.000	407.2
sp|Q66EV7|DEOD_YERPS	2.4.2.1	1.000	293.7
sp|Q6AQW7|MTNN_DESPS	3.2.2.9	1.000	300.9
sp|Q6CES3|MTAP_YARLI	2.4.2.28	1.000	412.6
sp|Q6D1Z4|MTNN_PECAS	3.2.2.9	1.000	408.0
sp|Q6D989|DEOD_PECAS	2.4.2.1	1.000	293.9
sp|Q6G8W9|MTNN_STAAS	3.2.2.9	1.000	336.3
sp|Q6G8W9|MTNN_STAAS	3.2.2.30	0.071	174.8
sp|Q6GGA2|MTNN_STAAR	3.2.2.9	1.000	335.5
sp|Q6GGA2|MTNN_STAAR	3.2.2.30	0.064	174.3
sp|Q6HDF1|MTNN_BACHK	3.2.2.9	1.000	350.0
sp|Q6HDF1|MTNN_BACHK	3.2.2.30	0.353	182.3
sp|Q6HL92|DEOD_BACHK	2.4.2.1	1.000	276.6
sp|Q6LLA7|DEOD2_PHOPR	2.4.2.1	1.000	259.6
sp|Q6LUH1|DEOD1_PHOPR	2.4.2.1	1.000	288.1
sp|Q6LUR4|MTNN_PHOPR	3.2.2.9	1.000	342.5
sp|Q71YG0|DEOD_LISMF	2.4.2.1	1.000	262.3
sp|Q71ZH6|MTNN_LISMF	3.2.2.9	1.000	313.1
sp|Q72LZ4|MTAP_LEPIC	2.4.2.28	1.000	412.3
sp|Q730G0|MTNN_BACC1	3.2.2.9	1.000	350.3
sp|Q730G0|MTNN_BACC1	3.2.2.30	0.191	181.6
sp|Q73B32|DEOD_BACC1	2.4.2.1	1.000	276.6
sp|Q74E52|MTAP_GEOSL	2.4.2.28	1.000	408.4
sp|Q7A0R5|MTNN_STAAW	3.2.2.9	1.000	336.3
sp|Q7A0R5|MTNN_STAAW	3.2.2.30	0.071	174.8
sp|Q7A5B0|MTNN_STAAN	3.2.2.9	1.000	336.3
sp|Q7A5B0|MTNN_STAAN	3.2.2.30	0.071	174.8
sp|Q7CKD4|MTNN_YERPE	3.2.2.9	1.000	402.8
sp|Q7MFG6|DEOD2_VIBVY	2.4.2.1	1.000	265.0
sp|Q7MI41|DEOD1_VIBVY	2.4.2.1	1.000	282.8
sp|Q7MNT0|MTNN_VIBVY	3.2.2.9	1.000	352.0
sp|Q7N841|MTNN_PHOLL	3.2.2.9	1.000	384.6
sp|Q7N930|DEOD_PHOLL	2.4.2.1	1.000	282.8
sp|Q7NHW1|MTAP_GLOVI	2.4.2.28	1.000	395.2
sp|Q7NRT2|DEOD_CHRVO	2.4.2.1	0.962	244.4
sp|Q7Q9N9|MTAP_ANOGA	2.4.2.28	1.000	381.8
sp|Q7RZA5|MTAP_NEUCR	2.4.2.28	1.000	431.1
sp|Q7VDN6|MTAP_PROMA	2.4.2.28	1.000	393.5
sp|Q7VKK0|MTNN_HAEDU	3.2.2.9	1.000	323.2
sp|Q7VMS8|DEOD_HAEDU	2.4.2.1	1.000	285.4
sp|Q7XA67|MTN2_ARATH	3.2.2.9	1.000	200.6
sp|Q7ZV22|MTAP_DANRE	2.4.2.28	1.000	401.3
sp|Q812S1|MTNN_BACCR	3.2.2.9	1.000	347.8
sp|Q812S1|MTNN_BACCR	3.2.2.30	0.122	180.3
sp|Q81FV5|DEOD_BACCR	2.4.2.1	1.000	275.2
sp|Q81LL4|MTNN_BACAN	3.2.2.9	1.000	350.3
sp|Q81LL4|MTNN_BACAN	3.2.2.30	0.191	181.6
sp|Q81T09|DEOD_BACAN	2.4.2.1	1.000	276.6
sp|Q83P00|DEOD_SHIFL	2.4.2.1	1.000	291.8
sp|Q87BR7|MTIP_XYLFT	2.4.2.44	1.000	373.4
sp|Q87G42|DEOD2_VIBPA	2.4.2.1	1.000	273.1
sp|Q87M25|DEOD1_VIBPA	2.4.2.1	1.000	283.9
sp|Q87SE5|MTNN_VIBPA	3.2.2.9	1.000	351.8
sp|Q87ZC3|MTIP_PSESM	2.4.2.44	1.000	368.4
sp|Q894Z3|DEOD_CLOTE	2.4.2.1	0.970	250.0
sp|Q89A58|DEOD_BUCBP	2.4.2.1	0.839	213.5
sp|Q89AQ7|MTNN_BUCBP	3.2.2.9	1.000	281.6
sp|Q89VT5|MTAP_BRADU	2.4.2.28	1.000	369.3
sp|Q8CGR7|UPP2_MOUSE	2.4.2.3	1.000	440.7
sp|Q8CP08|MTNN_STAES	3.2.2.9	1.000	325.5
sp|Q8CP08|MTNN_STAES	3.2.2.30	0.108	178.1
sp|Q8CXR2|MTAP_LEPIN	2.4.2.28	1.000	409.9
sp|Q8D3Z2|DEOD2_VIBVU	2.4.2.1	1.000	265.0
sp|Q8DBS9|DEOD1_VIBVU	2.4.2.1	1.000	282.8
sp|Q8DEM9|MTNN_VIBVU	3.2.2.9	1.000	351.6
sp|Q8DJE4|MTAP_THEEB	2.4.2.28	1.000	405.0
sp|Q8EDM4|DEOD3_SHEON	2.4.2.1	0.891	224.5
sp|Q8EHA7|MTNN_SHEON	3.2.2.9	1.000	324.4
sp|Q8EHK0|DEOD2_SHEON	2.4.2.1	1.000	266.4
sp|Q8EKK0|DEOD1_SHEON	2.4.2.1	0.946	234.2
sp|Q8ENY0|DEOD_OCEIH	2.4.2.1	1.000	254.5
sp|Q8EPT8|MTNN_OCEIH	3.2.2.9	1.000	314.1
sp|Q8EPT8|MTNN_OCEIH	3.2.2.30	0.349	182.1
sp|Q8FA51|DEOD_ECOL6	2.4.2.1	1.000	291.8
sp|Q8IMU4|PNPH_DROME	2.4.2.28	0.679	277.0
sp|Q8K937|DEOD_BUCAP	2.4.2.1	0.923	231.6
sp|Q8KRT5|DEOD_XENNA	2.4.2.1	1.000	292.1
sp|Q8PB40|MTIP_XANCP	2.4.2.44	1.000	368.2
sp|Q8R973|DEOD_CALS4	2.4.2.1	1.000	258.6
sp|Q8TQX8|MTIP_METAC	2.4.2.44	1.000	368.2
sp|Q8TZB4|MTIP_METKA	2.4.2.44	1.000	385.0
sp|Q8U2I1|PNPH_PYRFU	2.4.2.44	0.699	357.6
sp|Q8U4Q8|MTAP_PYRFU	2.4.2.28	1.000	380.1
sp|Q8Y644|DEOD_LISMO	2.4.2.1	1.000	262.3
sp|Q8Y729|MTNN_LISMO	3.2.2.9	1.000	312.0
sp|Q8Z0U2|DEOD_SALTI	2.4.2.1	1.000	291.1
sp|Q8ZIQ2|DEOD_YERPE	2.4.2.1	1.000	291.0
sp|Q8ZJV7|DEOD_SALTY	2.4.2.1	1.000	291.0
sp|Q8ZTB2|MTAP_PYRAE	2.4.2.28	1.000	349.3
sp|Q92AF2|DEOD_LISIN	2.4.2.1	1.000	262.6
sp|Q92BL9|MTNN_LISIN	3.2.2.9	1.000	308.2
sp|Q97W94|MTAP_SULSO	2.4.2.28	1.000	391.5
sp|Q99TQ0|MTNN_STAAM	3.2.2.9	1.000	336.3
sp|Q99TQ0|MTNN_STAAM	3.2.2.30	0.071	174.8
sp|Q9CH10|DEOD_LACLA	2.4.2.1	1.000	254.0
sp|Q9CLE6|DEOD_PASMU	2.4.2.1	1.000	285.3
sp|Q9CP62|MTNN_PASMU	3.2.2.9	1.000	327.3
sp|Q9CQ65|MTAP_MOUSE	2.4.2.28	1.000	401.7
sp|Q9HL98|MTAP_THEAC	2.4.2.28	1.000	353.8
sp|Q9HZK1|MTIP_PSEAE	2.4.2.44	0.908	359.9
sp|Q9KDD4|MTNN_BACHD	3.2.2.9	1.000	306.9
sp|Q9KNB2|DEOD2_VIBCH	2.4.2.1	1.000	273.5
sp|Q9KPI8|MTNN_VIBCH	3.2.2.9	1.000	349.9
sp|Q9KPI8|MTNN_VIBCH	3.2.2.30	0.053	170.5
sp|Q9KPM0|DEOD1_VIBCH	2.4.2.1	1.000	286.1
sp|Q9KXN0|MQNB_STRCO	3.2.2.26	1.000	359.4
sp|Q9KYV7|PNPH_STRCO	2.4.2.28	0.732	288.6
sp|Q9PAZ2|MTIP_XYLFA	2.4.2.44	1.000	365.5
sp|Q9T0I8|MTN1_ARATH	3.2.2.9	1.000	195.9
sp|Q9UTG1|PNPH_SCHPO	2.4.2.1	1.000	280.5
sp|Q9V2F1|MTAP_PYRAB	2.4.2.28	1.000	379.2
sp|Q9V813|MTAP_DROME	2.4.2.28	1.000	372.6
sp|Q9X0L3|MTNN_THEMA	3.2.2.9	1.000	180.7
sp|Q9YAQ8|MTAP_AERPE	2.4.2.28	1.000	383.9
sp|Q9ZK38|DEOD_HELPJ	2.4.2.1	0.892	223.3
sp|Q9ZMY2|MQMTN_HELPJ	3.2.2.30	1.000	470.1
sp|Q9ZMY2|MQMTN_HELPJ	3.2.2.9	1.000	470.1
